Clasificación
…
Tokenizacion y quitar stop words

tokens <- data %>%
  select(doc_id, category, description_clean) %>%
  unnest_tokens(word, description_clean) %>%
  anti_join(stop_words, by = "word") %>%
  filter(nchar(word) > 1)

tokens

# A tibble: 224,663 × 3
   doc_id category word    
    <int> <chr>    <chr>   
 1      1 Misc     event   
 2      1 Misc     happened
 3      1 Misc     tuesday 
 4      1 Misc     morning 
 5      1 Misc     habit   
 6      1 Misc     awake   
 7      1 Misc     wee     
 8      1 Misc     hours   
 9      1 Misc     morning 
10      1 Misc     fairly  
# ℹ 224,653 more rows
…
sentiment_analysis <- tokens %>%
  inner_join(nrc, by = "word") %>%
  count(doc_id, sentiment) %>%   
  tidyr::spread(sentiment, n, fill = 0)

Warning in inner_join(., nrc, by = "word"): Detected an unexpected many-to-many relationship between `x` and `y`.
ℹ Row 10 of `x` matches multiple rows in `y`.
ℹ Row 5905 of `y` matches multiple rows in `x`.
ℹ If a many-to-many relationship is expected, set `relationship =
  "many-to-many"` to silence this warning.

sentiment_analysis

# A tibble: 1,000 × 11
   doc_id anger anticipation disgust  fear   joy negative positive sadness
    <int> <dbl>        <dbl>   <dbl> <dbl> <dbl>    <dbl>    <dbl>   <dbl>
 1      1     0            6       0     4     1        6        6       3
 2      2    16           24      16    20    25       41       70      28
 3      3     5            8       3     9     5       12       15      10
 4      4     1           12       1     4     6        5       19       4
 5      5     2           13       0     6     8        7       15       6
 6      6    10            2       7    10     6       14       10      10
 7      7     5            9       6     9     6       13       15      10
 8      8     2            2       2     4     1        4        8       0
 9      9     1            3       1     1     0        3        0       4
10     10     4            4       3     7     1        9        5       3
# ℹ 990 more rows
# ℹ 2 more variables: surprise <dbl>, trust <dbl>

doc_term_counts <- tokens %>%
  count(doc_id, word, name = "n", sort = FALSE)

doc_term_counts

# A tibble: 153,917 × 3
   doc_id word          n
    <int> <chr>     <int>
 1      1 alongside     1
 2      1 angled        1
 3      1 asleep        1
 4      1 attention     2
 5      1 awake         3
 6      1 basis         1
 7      1 bed           3
 8      1 bedroom       2
 9      1 blinds        2
10      1 burned        1
# ℹ 153,907 more rows
…
